id;type
5fd0b5bc-3598-4c39-8d61-2bce65bf8d87;PARAMOUNT_PICTURES
7a3e800a-6b49-4ffc-a27f-3627878d7ce1;DISNEY
480ad4b6-72a6-4cef-9605-e2c2f8120c34;TWENTY_CENTURY_FOX
00103442-f1dc-44ca-9542-13d11744f8d3;BRAZZERS
8db91604-13c8-4d0f-b3c2-618d893e0c3a;OTHER