id;film_id;person_id;description;type
51fc3a44-0c46-4a9a-b171-794b13911e38;9868f163-d1cd-46a4-be81-0d2db1ee4d5f;37a8a492-afb4-4e16-882d-07ae46ee511e;film maker;FILMMAKER
8fb0752a-6cae-46a1-958b-af4ae761a8ca;0a30c433-abee-4b85-8694-c0cd854e866e;019747f5-639a-42c3-a7c8-abe220575db7;the driver;ACTOR
